MENUE	=	0	;TREE
INFO1	=	1	;TREE
INFO2	=	2	;TREE
KONFFREQ	=	3	;TREE
KONFSCHW	=	4	;TREE
DPEAK	=	5	;TREE
HALL	=	6	;TREE
INFORMAT	=	3	;OBJECT in TREE#0
FILE	=	4	;OBJECT in TREE#0
TSAMPLE	=	5	;OBJECT in TREE#0
AUSGABE	=	6	;OBJECT in TREE#0
OPTIONEN	=	7	;OBJECT in TREE#0
UEBER	=	10	;OBJECT in TREE#0
QUIT	=	19	;OBJECT in TREE#0
LOAD8	=	21	;OBJECT in TREE#0
LOADAM	=	22	;OBJECT in TREE#0
LOADAT	=	23	;OBJECT in TREE#0
SAVE8	=	24	;OBJECT in TREE#0
SAVEAM	=	25	;OBJECT in TREE#0
SAVEAT	=	26	;OBJECT in TREE#0
MERGE	=	29	;OBJECT in TREE#0
SEND	=	31	;OBJECT in TREE#0
RECEIVE	=	32	;OBJECT in TREE#0
VOLUME	=	34	;OBJECT in TREE#0
LOESCHEN	=	36	;OBJECT in TREE#0
EINLESEN	=	38	;OBJECT in TREE#0
DREHEN	=	39	;OBJECT in TREE#0
MAKEHALL	=	40	;OBJECT in TREE#0
MONITOR	=	42	;OBJECT in TREE#0
PARALLEL	=	43	;OBJECT in TREE#0
GRAFIK	=	44	;OBJECT in TREE#0
FOURIER	=	45	;OBJECT in TREE#0
RMONITOR	=	48	;OBJECT in TREE#0
CENTHALL	=	49	;OBJECT in TREE#0
EFILTER	=	50	;OBJECT in TREE#0
AUSSTEUE	=	52	;OBJECT in TREE#0
FREQUENZ	=	54	;OBJECT in TREE#0
SCHWELLE	=	55	;OBJECT in TREE#0
PEAK	=	57	;OBJECT in TREE#0
HALLMEM	=	58	;OBJECT in TREE#0
INFO1OK	=	2	;OBJECT in TREE#1
INFO2OK	=	11	;OBJECT in TREE#2
FREQOK	=	1	;OBJECT in TREE#3
FREQUP	=	5	;OBJECT in TREE#3
FREQDOWN	=	6	;OBJECT in TREE#3
EDITFREQ	=	7	;OBJECT in TREE#3
FREQDUP	=	8	;OBJECT in TREE#3
FREQDDOW	=	9	;OBJECT in TREE#3
ZEIT	=	11	;OBJECT in TREE#3
SCHWOK	=	1	;OBJECT in TREE#4
SCHWUP	=	3	;OBJECT in TREE#4
SCHWDOWN	=	4	;OBJECT in TREE#4
EDITSCHW	=	5	;OBJECT in TREE#4
SCHWDUP	=	7	;OBJECT in TREE#4
SCHWDDOW	=	8	;OBJECT in TREE#4
PEAKT	=	5	;OBJECT in TREE#5
PEAKP	=	6	;OBJECT in TREE#5
HALLOK	=	1	;OBJECT in TREE#6
HALLCANC	=	2	;OBJECT in TREE#6
HALLD	=	3	;OBJECT in TREE#6
HALLU	=	4	;OBJECT in TREE#6
HALLT	=	5	;OBJECT in TREE#6
HALLDD	=	7	;OBJECT in TREE#6
HALLUU	=	8	;OBJECT in TREE#6
